[
  {"id":1,"titre":"STAGIAIRE DÉVELOPPEUR WEB", "description":"Vous êtes polyvalent, imaginatif, rigoureux et vous possédez une réelle curiosité pour les nouvelles technologies ?\nMotivé pour travailler, échanger et collaborer au sein d’une petite structure ?\nAlors contactez-nous !",
    "technologie":"Angular", "expire":false, "reference": "www.indeed.fr", "duree": 6},
  {"id":2,"titre":"Stage : Participez à un projet en PHP dans le domaine de l’Energie H/F - CGI France", "description":"Vous prenez en charge des missions de développement dans une Tierce Maintenance Applicative (TMA), chargée de la gestion d’un système d’information pour un client Grand Compte du domaine de l’énergie.",
    "technologie":"Symfony", "expire":true, "reference": "https://www.monster.fr/", "duree": 6},
  {"id":3,"titre":"Développeur(se) full-stack JS - stage", "description":"Réaliser les travaux de développement web (maintenance et nouvelles fonctionnalités) sur notre plateforme d’organisation des soins à domicile :\n\nsite en NodeJS (TypeScript) + Twig/jQuery,\ninterface administrateur en AngularJS,\nsite pour les professionnels de santé en Angular 6,\napplication mobile hybride pour les pros en Ionic 4,\nAPI en NodeJS liée à des bases MySQL et CouchDB.",
    "technologie":"Angular", "expire":false, "reference": "www.indeed.fr", "duree": 3},
  {"id":4,"titre":"Stagiaire Développement Full Stack Python", "description":"Nous cherchons tout d’abord un(e) candidat(e) motivé(e) par le domaine de la sécurité informatique, autonome et moteur.\nVous disposez d’expérience sur Python (script/Django/Flask/etc.) avec, idéalement :\n\nExpérience du développement de front-end en JavaScript (Angular, idéalement)\n\n",
    "technologie":"Python", "expire":true, "reference": "www.indeed.fr", "duree": 6},
  {"id":5,"titre":"Stage : Expert cloud - AZURE et AWS - H/F - CGI", "description":"Le stage se déroule au sein d’un laboratoire CGI, dans un contexte lié à l’infrastructure As Code sur les deux Cloud Public Azure de Microsoft et Aws d’Amazon. L’idée est de réaliser un SI sur les 2 providers en mode PRA (en miroir, en reprise d’activité et reliés via une VPN Site à Site).",
    "technologie":"Cloud", "expire":true, "reference": "https://www.monster.fr/", "duree": 4}


]
